Take-home Exercise 1: Uncovering Loss Drivers in Motor Vehicle Insurance Portfolio using Data Visualisation – Exploring Visual Analytics
…
age_driving_licence
2
<0.01%

As the missing values are very small in proportion (less than 0.5% of the total dataset), they will not significantly affect the analysis. drop_na() drops rows where any column specified contains a missing value.

insurance <- drop_na(insurance,
                     fuel_type, vehicle_value,
                     vehicle_age, age_driving_licence)
insurance

# A tibble: 352,338 × 29
   insured_id  year policy_type policy_status business_type payment_frequency
        <dbl> <dbl> <chr>       <chr>         <chr>         <chr>            
 1          1  2022 COMP_E      C             NB            A                
 2          2  2022 COMP_E      A             P             A                
 3          2  2023 COMP_E      A             P             A                
 4          2  2024 COMP_E      A             P             A                
 5          3  2022 COMP_E      A             NB            S                
 6          3  2023 COMP_E      A             P             S                
 7          3  2024 COMP_E      A             P             S                
 8          4  2022 CC          A             NB            A                
 9          4  2023 CC          A             P             A                
10          4  2024 CC          A             P             A                
# ℹ 352,328 more rows
# ℹ 23 more variables: bonus_score <chr>, driver_age <dbl>, vehicle_age <dbl>,
#   age_driving_licence <dbl>, fuel_type <chr>, vehicle_value <dbl>,
#   seats <dbl>, power_to_weight_ratio <dbl>, vehicle_brand <chr>,
#   municipality_type <chr>, circulation_area <chr>, total_premium <dbl>,
#   liability_premium <dbl>, property_damage_premium <dbl>,
#   theft_premium <dbl>, fire_premium <dbl>, glass_premium <dbl>, …
…
